{
  "hosting": {
    "public": "src/public",
    "ignore": [
      "firebase.json",
      "**/.*",
      "**/node_modules/**"
    ],
    "rewrites": [{
      "source": "**/**",
      "function": "next"
    }]
  },
  "functions": {
    "source": "src/functions"
  },
  "database": {
    "rules": "database.rules.json"
  }
}